…
## 11.5 Escribir a un archivo

- Codificar siempre las cadenas de caracteres en UTF-8.
- Guardar fechas y fechas-horas en formato ISO8601, por lo que son fácilmente segmentadas en cualquier sitio.

```{r}
write_csv(desafio, "desafio.csv")
```
Esto hace a los CSV poco confiables para almacenar en caché los resultados provisorios — necesitas recrear la especificación de las columnas cada vez que los cargas. Hay dos alternativas:

A. write_rds() and read_rds() son funciones “envoltorio” (wrappers) uniformes sobre las funciones base readRDS() y saveRDS(). Estas almacenan datos en un formato binario propio de R llamado RDS:
```{r}
write_rds(desafio, "desafio.rds")
read_rds("desafio.rds")
#> # A tibble: 2,000 x 2
#>   x     y    
#>   <chr> <chr>
#> 1 404   <NA> 
#> 2 4172  <NA> 
#> 3 3004  <NA> 
#> 4 787   <NA> 
#> 5 37    <NA> 
#> 6 2332  <NA> 
#> # … with 1,994 more rows
```
B. El paquete feather implementa un formato rápido de archivos binarios que puede compartirse a través de lenguajes de programación:
```{r}
#install.packages(feather)
library(feather)
write_feather(desafio, "desafio.feather")
read_feather("desafio.feather")
#> # A tibble: 2,000 x 2
#>       x      y
#>   <dbl> <date>
#> 1   404   <NA>
#> 2  4172   <NA>
#> 3  3004   <NA>
#> 4   787   <NA>
#> 5    37   <NA>
#> 6  2332   <NA>
#> # ... with 1,994 more rows
```
…
