…
```{r}
install.packages(c("nycflights13", "gapminder", "Lahman", "nasaweather", "babynames", "fueleconomy"))
```


<h3>Primeros Pasos </h3>
<h4>Data Frame Millas </h4>
```{r}
datos::millas
```
```{r}
#millas
#> # A tibble: 234 x 11
#>   fabricante modelo motor  anio cilindros transmision traccion ciudad
#>   <chr>      <chr>  <dbl> <int>     <int> <chr>       <chr>     <int>
#> 1 audi       a4       1.8  1999         4 auto(l5)    d            18
#> 2 audi       a4       1.8  1999         4 manual(m5)  d            21
#> 3 audi       a4       2    2008         4 manual(m6)  d            20
#> 4 audi       a4       2    2008         4 auto(av)    d            21
#> 5 audi       a4       2.8  1999         6 auto(l5)    d            16
#> 6 audi       a4       2.8  1999         6 manual(m5)  d            18
#> # … with 228 more rows, and 3 more variables: autopista <int>,
#> #   combustible <chr>, clase <chr>
```
…
