…
Otra función de dplyr que es útil para usar filtros es between(). ¿Qué hace? ¿Puedes usarla para simplificar el código necesario para responder a los desafíos anteriores?
```{r}
?between
filter(vuelos,  between(horario_salida,000, 600))
```

¿Cuántos vuelos tienen datos faltantes en horario_salida? ¿Qué otras variables tienen valores faltantes? ¿Qué representan estas filas?

¿Por qué NA ^ 0 no es faltante? ¿Por qué NA | TRUE no es faltante? ¿Por qué FALSE & NA no es faltante? ¿Puedes descubrir la regla general? (¡NA * 0 es un contraejemplo complicado!)


<h2>5.3 Reordenar las filas con arrange()</h2>
```{r}
arrange(vuelos, anio, mes, dia)
#> # A tibble: 336,776 x 19
#>    anio   mes   dia horario_salida salida_programa… atraso_salida
#>   <int> <int> <int>          <int>            <int>         <dbl>
#> 1  2013     1     1            517              515             2
#> 2  2013     1     1            533              529             4
#> 3  2013     1     1            542              540             2
#> 4  2013     1     1            544              545            -1
#> 5  2013     1     1            554              600            -6
#> 6  2013     1     1            554              558            -4
#> # … with 336,770 more rows, and 13 more variables: horario_llegada <int>,
#> #   llegada_programada <int>, atraso_llegada <dbl>, aerolinea <chr>,
#> #   vuelo <int>, codigo_cola <chr>, origen <chr>, destino <chr>,
#> #   tiempo_vuelo <dbl>, distancia <dbl>, hora <dbl>, minuto <dbl>,
#> #   fecha_hora <dttm>
```

```{r}
arrange(vuelos, desc(atraso_salida))
#> # A tibble: 336,776 x 19
#>    anio   mes   dia horario_salida salida_programa… atraso_salida
#>   <int> <int> <int>          <int>            <int>         <dbl>
#> 1  2013     1     9            641              900          1301
#> 2  2013     6    15           1432             1935          1137
#> 3  2013     1    10           1121             1635          1126
#> 4  2013     9    20           1139             1845          1014
#> 5  2013     7    22            845             1600          1005
#> 6  2013     4    10           1100             1900           960
#> # … with 336,770 more rows, and 13 more variables: horario_llegada <int>,
#> #   llegada_programada <int>, atraso_llegada <dbl>, aerolinea <chr>,
#> #   vuelo <int>, codigo_cola <chr>, origen <chr>, destino <chr>,
#> #   tiempo_vuelo <dbl>, distancia <dbl>, hora <dbl>, minuto <dbl>,
#> #   fecha_hora <dttm>
```
…
Ordena vuelos para encontrar los vuelos más rápidos (que viajaron a mayor velocidad).
```{r}
arrange(vuelos, tiempo_vuelo)
```


¿Cuáles vuelos viajaron más lejos? ¿Cuál viajó más cerca?
```{r}
arrange(vuelos, desc(distancia))
```
<h2>5.4 Seleccionar columnas con select() </h2>
```{r}
# Seleccionar columnas por nombre
select(vuelos, anio, mes, dia)
#> # A tibble: 336,776 x 3
#>    anio   mes   dia
#>   <int> <int> <int>
#> 1  2013     1     1
#> 2  2013     1     1
#> 3  2013     1     1
#> 4  2013     1     1
#> 5  2013     1     1
#> 6  2013     1     1
#> # … with 336,770 more rows
# Seleccionar todas las columnas entre anio y dia (incluyente)
select(vuelos, anio:dia)
#> # A tibble: 336,776 x 3
#>    anio   mes   dia
#>   <int> <int> <int>
#> 1  2013     1     1
#> 2  2013     1     1
#> 3  2013     1     1
#> 4  2013     1     1
#> 5  2013     1     1
#> 6  2013     1     1
#> # … with 336,770 more rows
# Seleccionar todas las columnas excepto aquellas entre anio en dia (incluyente)
select(vuelos, -(anio:dia))
#> # A tibble: 336,776 x 16
#>   horario_salida salida_programa… atraso_salida horario_llegada llegada_program…
#>            <int>            <int>         <dbl>           <int>            <int>
#> 1            517              515             2             830              819
#> 2            533              529             4             850              830
#> 3            542              540             2             923              850
#> 4            544              545            -1            1004             1022
#> 5            554              600            -6             812              837
#> 6            554              558            -4             740              728
#> # … with 336,770 more rows, and 11 more variables: atraso_llegada <dbl>,
#> #   aerolinea <chr>, vuelo <int>, codigo_cola <chr>, origen <chr>,
#> #   destino <chr>, tiempo_vuelo <dbl>, distancia <dbl>, hora <dbl>,
#> #   minuto <dbl>, fecha_hora <dttm>
```
```{r}
rename(vuelos, cola_num = codigo_cola)
#> # A tibble: 336,776 x 19
#>    anio   mes   dia horario_salida salida_programa… atraso_salida
#>   <int> <int> <int>          <int>            <int>         <dbl>
#> 1  2013     1     1            517              515             2
#> 2  2013     1     1            533              529             4
#> 3  2013     1     1            542              540             2
#> 4  2013     1     1            544              545            -1
#> 5  2013     1     1            554              600            -6
#> 6  2013     1     1            554              558            -4
#> # … with 336,770 more rows, and 13 more variables: horario_llegada <int>,
#> #   llegada_programada <int>, atraso_llegada <dbl>, aerolinea <chr>,
#> #   vuelo <int>, cola_num <chr>, origen <chr>, destino <chr>,
#> #   tiempo_vuelo <dbl>, distancia <dbl>, hora <dbl>, minuto <dbl>,
#> #   fecha_hora <dttm>
```
```{r}
select(vuelos, fecha_hora, tiempo_vuelo, everything())
#> # A tibble: 336,776 x 19
#>   fecha_hora          tiempo_vuelo  anio   mes   dia horario_salida
#>   <dttm>                     <dbl> <int> <int> <int>          <int>
#> 1 2013-01-01 05:00:00          227  2013     1     1            517
#> 2 2013-01-01 05:00:00          227  2013     1     1            533
#> 3 2013-01-01 05:00:00          160  2013     1     1            542
#> 4 2013-01-01 05:00:00          183  2013     1     1            544
#> 5 2013-01-01 06:00:00          116  2013     1     1            554
#> 6 2013-01-01 05:00:00          150  2013     1     1            554
#> # … with 336,770 more rows, and 13 more variables: salida_programada <int>,
#> #   atraso_salida <dbl>, horario_llegada <int>, llegada_programada <int>,
#> #   atraso_llegada <dbl>, aerolinea <chr>, vuelo <int>, codigo_cola <chr>,
#> #   origen <chr>, destino <chr>, distancia <dbl>, hora <dbl>, minuto <dbl>
```
…
<h2>5.5 Añadir nuevas variables con mutate()</h2>
```{r}
vuelos_sml <- select(vuelos,
  anio:dia,
  starts_with("atraso"),
  distancia,
  tiempo_vuelo
)
mutate(vuelos_sml,
  ganancia = atraso_salida - atraso_llegada,
  velocidad = distancia / tiempo_vuelo * 60
)
#> # A tibble: 336,776 x 9
#>    anio   mes   dia atraso_salida atraso_llegada distancia tiempo_vuelo ganancia
#>   <int> <int> <int>         <dbl>          <dbl>     <dbl>        <dbl>    <dbl>
#> 1  2013     1     1             2             11      1400          227       -9
#> 2  2013     1     1             4             20      1416          227      -16
#> 3  2013     1     1             2             33      1089          160      -31
#> 4  2013     1     1            -1            -18      1576          183       17
#> 5  2013     1     1            -6            -25       762          116       19
#> 6  2013     1     1            -4             12       719          150      -16
#> # … with 336,770 more rows, and 1 more variable: velocidad <dbl>
```

```{r}
mutate(vuelos_sml,
  ganancia = atraso_salida - atraso_llegada,
  horas = tiempo_vuelo / 60,
  ganacia_por_hora = ganancia / horas
)
#> # A tibble: 336,776 x 10
#>    anio   mes   dia atraso_salida atraso_llegada distancia tiempo_vuelo ganancia
#>   <int> <int> <int>         <dbl>          <dbl>     <dbl>        <dbl>    <dbl>
#> 1  2013     1     1             2             11      1400          227       -9
#> 2  2013     1     1             4             20      1416          227      -16
#> 3  2013     1     1             2             33      1089          160      -31
#> 4  2013     1     1            -1            -18      1576          183       17
#> 5  2013     1     1            -6            -25       762          116       19
#> 6  2013     1     1            -4             12       719          150      -16
#> # … with 336,770 more rows, and 2 more variables: horas <dbl>,
#> #   ganacia_por_hora <dbl>
```

```{r}
transmute(vuelos,
  ganancia = atraso_salida - atraso_llegada,
  horas = tiempo_vuelo / 60,
  ganancia_por_hora = ganancia / horas
)
#> # A tibble: 336,776 x 3
#>   ganancia horas ganancia_por_hora
#>      <dbl> <dbl>             <dbl>
#> 1       -9  3.78             -2.38
#> 2      -16  3.78             -4.23
#> 3      -31  2.67            -11.6 
#> 4       17  3.05              5.57
#> 5       19  1.93              9.83
#> 6      -16  2.5              -6.4 
#> # … with 336,770 more rows
```
<h3>5.5.1 Funciones de creación útiles</h3>
```{r}
transmute(vuelos,
  horario_salida,
  hora = horario_salida %/% 100,
  minuto = horario_salida %% 100
)
#> # A tibble: 336,776 x 3
#>   horario_salida  hora minuto
#>            <int> <dbl>  <dbl>
#> 1            517     5     17
#> 2            533     5     33
#> 3            542     5     42
#> 4            544     5     44
#> 5            554     5     54
#> 6            554     5     54
#> # … with 336,770 more rows
```


```{r}
transmute(vuelos,
  horario_salida,
  hora = horario_salida %/% 100,
  minuto = horario_salida %% 100
)
#> # A tibble: 336,776 x 3
#>   horario_salida  hora minuto
#>            <int> <dbl>  <dbl>
#> 1            517     5     17
#> 2            533     5     33
#> 3            542     5     42
#> 4            544     5     44
#> 5            554     5     54
#> 6            554     5     54
#> # … with 336,770 more rows
```
…
